﻿{
  "params": [
    {
      "name": "DebugMode",
      "desc": {
        "russian": "Вывод отладочной информации",
        "english": "Debug information output"
      },
      "fullDesc": {
        "russian": "Для отладки скрипта выводить дополнительную информацию.",
        "english": "To debug the script, display additional information."
      },
      "category": {
        "russian": "Отладка",
        "english": "Debug"
      },
      "type": "bool",
      "default": true
    },
    {
      "name": "DebugLevel",
      "desc": {
        "russian": "Уровень отладки",
        "english": "Debug Level"
      },
      "fullDesc": {
        "russian": "0 - Только исключения; 1 - Исключения и входящие данные; 2 - Все сообщения.",
        "english": "0 - Only exceptions; 1 - Exceptions and incoming data; 2 - All messages."
      },
      "category": {
        "russian": "Отладка",
        "english": "Debug"
      },
      "type": "list",
      "default": "0 - Только исключения",
      "enumerate": [
        {
          "value": "0 - Только исключения"
        },
        {
          "value": "1 - Исключения и входящие данные"
        },
        {
          "value": "2 - Все сообщения"
        }
      ]
    },
    {
      "name": "BotList",
      "desc": {
        "russian": "Перечень ников ботов",
        "english": "List of nicknames for bots"
      },
      "fullDesc": {
        "russian": "Список ников ботов (через запятую).",
        "english": "List of nicknames of bots (separated by commas)."
      },
      "category": {
        "russian": "Боты",
        "english": "Bots"
      },
      "type": "string",
      "default": "RutonyChat,NightBot,MooBot,RestreamBot,EssenceSpiritBot"
    },
    {
      "name": "CheckAdmin",
      "desc": {
        "russian": "Обрабатывать сообщения от админов",
        "english": "Process messages from admins"
      },
      "fullDesc": {
        "russian": "Если хотите обрабатывать сообщения от админов, то включите данный параметр (True).",
        "english": "If you want to process messages from admins, then enable this parameter (True)."
      },
      "category": {
        "russian": "Админы",
        "english": "Admins"
      },
      "type": "bool",
      "default": true
    },
    {
      "name": "AdminList",
      "desc": {
        "russian": "Перечень ников админов канала",
        "english": "List of nicknames for channel admins"
      },
      "fullDesc": {
        "russian": "Список ников админов канала (через запятую).",
        "english": "List of nicknames of channel admins (separated by commas)."
      },
      "category": {
        "russian": "Админы",
        "english": "Admins"
      },
      "type": "string",
      "default": "LLIaMMaH,LLIaMMaH.TV,EssenceSpiritBot"
    },
    {
      "name": "BlackNiks",
      "desc": {
        "russian": "Чёрный список ников",
        "english": "Black list of nicknames"
      },
      "fullDesc": {
        "russian": "Список ников (через запятую), сообщения от кого не нужно обрабатывать.",
        "english": "List of nicknames (separated by commas), messages from whom do not need to be processed."
      },
      "category": {
        "russian": "Чёрный список",
        "english": "Black List"
      },
      "type": "string",
      "default": ""
    }
  ]
}